[
  {
    "uuid": "71731989-9617-402b-8d5c-b3e4f1033bba",
    "name": "StarLady45"
  },
  {
    "uuid": "b31f367d-45f6-4c52-a171-ea70bd054b18",
    "name": "reeno49"
  },
  {
    "uuid": "0f1c3b40-431e-40c6-a0d0-950ee8abcfca",
    "name": "Flailor"
  },
  {
    "uuid": "177000b8-e830-4b70-bc95-9df597d0c5d7",
    "name": "voziv"
  },
  {
    "uuid": "529e7d35-1154-4a5e-917b-a8f44dde15e2",
    "name": "mykepwnage"
  },
  {
    "uuid": "07296379-5a10-40f8-ae74-558d216583a1",
    "name": "xX_GHz_Xx"
  },
  {
    "uuid": "ac7d35c9-d84b-4d6b-9910-1e461d817f80",
    "name": "Omanah"
  },
  {
    "uuid": "a71e3e6e-24dd-4b48-bdff-a5012e70f7fd",
    "name": "TVTrChase"
  },
  {
    "uuid": "157a8873-edc2-4a82-ab14-339115acf5f2",
    "name": "Willardee"
  }
]